…
``` r
ggsave(filename = "output/GDP-euro-or-not2.pdf",
       width = 3, height = 4, units = "in", dpi = 300)
```

Who are the winners, and who are the losers?

``` r
latest_gdp$euro <- factor(latest_gdp$euro)
latest_gdp %>% 
  select(time, name, euro, index) %>% 
  arrange(desc(index))
```

    ## # A tibble: 30 x 4
    ##    time       name       euro  index
    ##    <date>     <fct>      <fct> <dbl>
    ##  1 2018-10-01 Malta      N      167.
    ##  2 2018-10-01 Ireland    Y      159.
    ##  3 2018-10-01 Poland     N      151.
    ##  4 2018-10-01 Romania    N      141.
    ##  5 2018-10-01 Bulgaria   N      129.
    ##  6 2018-10-01 Lithuania  N      124.
    ##  7 2018-10-01 Luxembourg Y      124.
    ##  8 2018-10-01 Serbia     N      123.
    ##  9 2018-10-01 Czechia    N      123.
    ## 10 2018-10-01 Sweden     N      122.
    ## # ... with 20 more rows

``` r
latest_gdp %>% 
  select(time, name, euro, index) %>% 
  arrange(index)
```

    ## # A tibble: 30 x 4
    ##    time       name     euro  index
    ##    <date>     <fct>    <fct> <dbl>
    ##  1 2018-10-01 Greece   Y      77.7
    ##  2 2018-10-01 Italy    Y      95.4
    ##  3 2018-10-01 Croatia  N     102. 
    ##  4 2018-10-01 Portugal Y     103. 
    ##  5 2018-10-01 Finland  Y     106. 
    ##  6 2018-10-01 Spain    Y     108. 
    ##  7 2018-10-01 Latvia   N     110. 
    ##  8 2018-10-01 Denmark  N     111. 
    ##  9 2018-10-01 France   Y     111. 
    ## 10 2018-10-01 Cyprus   N     112. 
    ## # ... with 20 more rows
…
